[
    {
      "picture": "http://placehold.it/32x32",
      "age": 23,
      "name": "Bird Ramsey",
      "gender": "male",
      "company": "NIMON",
      "email": "birdramsey@nimon.com"
    },
    {
      "picture": "http://placehold.it/32x32",
      "age": 31,
      "name": "Lillian Burgess",
      "gender": "female",
      "company": "LUXURIA",
      "email": "lillianburgess@luxuria.com"
    },
    {
      "picture": "http://placehold.it/32x32",
      "age": 34,
      "name": "Kristie Cole",
      "gender": "female",
      "company": "QUADEEBO",
      "email": "kristiecole@quadeebo.com"
    },
    {
      "picture": "http://placehold.it/32x32",
      "age": 30,
      "name": "Leonor Cross",
      "gender": "female",
      "company": "GRONK",
      "email": "leonorcross@gronk.com"
    },
    {
      "picture": "http://placehold.it/32x32",
      "age": 28,
      "name": "Marsh Mccall",
      "gender": "male",
      "company": "ULTRIMAX",
      "email": "marshmccall@ultrimax.com"
    }
  ]